Version 4
SHEET 1 1436 756
WIRE 48 48 -128 48
WIRE 208 48 48 48
WIRE 544 48 432 48
WIRE 640 48 544 48
WIRE -128 96 -128 48
WIRE 208 96 208 48
WIRE 432 96 432 48
WIRE 640 96 640 48
WIRE 432 224 432 176
WIRE 640 240 640 176
WIRE -128 256 -128 176
WIRE 208 272 208 176
WIRE 1232 352 1088 352
WIRE 1344 352 1232 352
WIRE 640 416 640 320
WIRE 1088 416 1088 352
WIRE 1232 416 1232 352
WIRE 1344 416 1344 352
WIRE 208 432 208 352
WIRE 1088 528 1088 496
WIRE 1232 528 1232 480
WIRE 1232 528 1088 528
WIRE 1344 528 1344 496
WIRE 1344 528 1232 528
WIRE 1088 544 1088 528
WIRE 208 560 208 512
WIRE 640 576 640 496
WIRE 208 736 208 640
WIRE 208 752 208 736
FLAG 208 736 0
FLAG -128 256 0
FLAG 640 576 0
FLAG 432 224 0
FLAG 48 48 Vmotor
FLAG 544 48 Vtorque
FLAG 1088 544 0
SYMBOL voltage -128 80 R0
WINDOW 123 0 0 Left 2
WINDOW 39 0 0 Left 2
SYMATTR InstName V_amp
SYMATTR Value PWL(0 10 0.9 36V 1.2 0)
SYMBOL ind 192 80 R0
SYMATTR InstName Lm
SYMATTR Value 0.0015
SYMBOL res 192 256 R0
SYMATTR InstName Rm
SYMATTR Value 0.5
SYMBOL voltage 208 544 R0
WINDOW 123 0 0 Left 2
WINDOW 39 0 0 Left 2
SYMATTR InstName VSENSE1
SYMATTR Value ""
SYMBOL ind 624 80 R0
SYMATTR InstName L1
SYMATTR Value 0.00025
SYMBOL res 624 224 R0
SYMATTR InstName R1
SYMATTR Value 0.0001
SYMBOL voltage 640 400 R0
WINDOW 123 0 0 Left 2
WINDOW 39 0 0 Left 2
SYMATTR InstName VSENSE2
SYMATTR Value ""
SYMBOL bv 208 416 R0
SYMATTR InstName V_EMF
SYMATTR Value V=I(VSENSE2)*0.05
SYMBOL bv 432 80 R0
SYMATTR InstName V_TORQ
SYMATTR Value V=I(VSENSE1)*0.05
SYMBOL bi2 1088 416 R0
SYMATTR InstName B1
SYMATTR Value I=I(VSENSE2)
SYMBOL cap 1216 416 R0
SYMATTR InstName C1
SYMATTR Value 1
SYMBOL res 1328 400 R0
SYMATTR InstName R2
SYMATTR Value 1meg
TEXT 1024 72 Left 2 ;.PARAM Kt = 0.05
TEXT 1024 120 Left 2 ;.PARAM Kemf = 0.05
TEXT 1024 168 Left 2 !.tran 2
