Version 4
SHEET 1 880 680
WIRE -80 -32 -720 -32
WIRE 32 -32 -80 -32
WIRE 192 -32 32 -32
WIRE 624 -32 384 -32
WIRE -80 0 -80 -32
WIRE 32 0 32 -32
WIRE 192 64 192 -32
WIRE 384 80 384 48
WIRE 496 80 384 80
WIRE 384 96 384 80
WIRE 624 96 624 -32
WIRE 32 112 32 80
WIRE 96 112 32 112
WIRE 128 112 96 112
WIRE 32 144 32 112
WIRE 192 176 192 160
WIRE 304 176 192 176
WIRE 336 176 304 176
WIRE -240 192 -544 192
WIRE -144 192 -160 192
WIRE -80 192 -80 80
WIRE -32 192 -80 192
WIRE 192 192 192 176
WIRE 496 192 496 80
WIRE -720 224 -720 -32
WIRE -80 224 -80 192
WIRE -544 240 -544 192
WIRE 96 240 96 112
WIRE 128 240 96 240
WIRE -144 272 -144 192
WIRE 304 272 304 176
WIRE 448 272 304 272
WIRE -720 336 -720 304
WIRE -544 336 -544 320
WIRE -544 336 -720 336
WIRE -80 336 -80 320
WIRE -80 336 -544 336
WIRE 32 336 32 240
WIRE 32 336 -80 336
WIRE 192 336 192 288
WIRE 192 336 32 336
WIRE 384 336 384 192
WIRE 384 336 192 336
WIRE 496 336 496 288
WIRE 496 336 384 336
WIRE 624 336 624 176
WIRE 624 336 496 336
WIRE 192 368 192 336
WIRE 0 0 0 0
FLAG 192 368 0
SYMBOL npn 128 64 R0
SYMATTR InstName Q1
SYMATTR Value BC547C
SYMBOL pnp 128 288 M180
SYMATTR InstName Q2
SYMATTR Value BC556B
SYMBOL npn -32 144 R0
SYMATTR InstName Q3
SYMATTR Value BC547C
SYMBOL res 16 -16 R0
SYMATTR InstName R1
SYMATTR Value 1k
SYMBOL res -144 176 R90
WINDOW 0 0 56 VBottom 2
WINDOW 3 32 56 VTop 2
SYMATTR InstName R2
SYMATTR Value 1k
SYMBOL voltage -544 224 R0
WINDOW 123 0 0 Left 2
WINDOW 39 0 0 Left 2
SYMATTR InstName V2
SYMATTR Value PULSE(0 3.3 0 0 0 0.02m 0.04m)
SYMBOL nmos 336 96 R0
SYMATTR InstName M1
SYMATTR Value IPP045N10N3
SYMBOL voltage 624 80 R0
WINDOW 123 0 0 Left 2
WINDOW 39 0 0 Left 2
SYMATTR InstName V3
SYMATTR Value 36
SYMBOL res 368 -48 R0
SYMATTR InstName R3
SYMATTR Value 1.8
SYMBOL nmos 448 192 R0
SYMATTR InstName M2
SYMATTR Value IPP045N10N3
SYMBOL voltage -720 208 R0
WINDOW 123 0 0 Left 2
WINDOW 39 0 0 Left 2
SYMATTR InstName V4
SYMATTR Value 12
SYMBOL npn -144 224 R0
SYMATTR InstName Q4
SYMATTR Value BC547C
SYMBOL res -96 -16 R0
SYMATTR InstName R4
SYMATTR Value 1k
TEXT -176 416 Left 2 !.tran 1m
